[gd_scene load_steps=5 format=2]

[ext_resource path="res://gdnlib/gun.gdnlib" type="GDNativeLibrary" id=1]
[ext_resource path="res://textures/guns/ak47/shell.png" type="Texture" id=2]

[sub_resource type="NativeScript" id=1]

resource_name = "Shell"
class_name = "Shell"
library = ExtResource( 1 )

[sub_resource type="RectangleShape2D" id=2]

custom_solver_bias = 0.0
extents = Vector2( 1.875, 6.25 )
_sections_unfolded = [ "Resource" ]

[node name="ak47_shell" type="RigidBody2D" index="0"]

input_pickable = false
collision_layer = 1024
collision_mask = 0
mode = 0
mass = 1.0
friction = 1.0
bounce = 0.0
gravity_scale = 6.0
custom_integrator = false
continuous_cd = 0
contacts_reported = 1
contact_monitor = false
sleeping = false
can_sleep = true
linear_velocity = Vector2( 0, 0 )
linear_damp = -1.0
angular_velocity = 2.0
angular_damp = 5.0
script = SubResource( 1 )
_sections_unfolded = [ "Angular", "Applied Forces", "Collision", "Linear", "Pickable", "Transform", "base" ]
timeout = 5.0

[node name="collision" type="CollisionShape2D" parent="." index="0"]

rotation = 1.5708
shape = SubResource( 2 )
_sections_unfolded = [ "Transform" ]

[node name="sprite" type="Sprite" parent="." index="1"]

scale = Vector2( 0.22, 0.22 )
texture = ExtResource( 2 )
_sections_unfolded = [ "Transform" ]


