[gd_scene load_steps=14 format=2]

[ext_resource path="res://gdnlib/level.gdnlib" type="GDNativeLibrary" id=1]
[ext_resource path="res://textures/levels/intro/truck1/base.png" type="Texture" id=2]
[ext_resource path="res://textures/levels/intro/truck1/back.png" type="Texture" id=3]
[ext_resource path="res://textures/levels/intro/truck1/front.png" type="Texture" id=4]
[ext_resource path="res://textures/levels/intro/truck1/light.png" type="Texture" id=5]
[ext_resource path="res://textures/levels/intro/truck1/ladder.png" type="Texture" id=6]

[sub_resource type="NativeScript" id=1]

resource_name = "ObjTruck"
class_name = "ObjTruck"
library = ExtResource( 1 )

[sub_resource type="CanvasItemMaterial" id=2]

render_priority = 0
blend_mode = 0
light_mode = 2

[sub_resource type="OccluderPolygon2D" id=3]

closed = true
cull_mode = 0
polygon = PoolVector2Array( -285.5, -96.5, -284.5, 26.5, 257, 28, 256, -95 )

[sub_resource type="RectangleShape2D" id=4]

custom_solver_bias = 0.0
extents = Vector2( 3, 114 )

[sub_resource type="RectangleShape2D" id=5]

custom_solver_bias = 0.0
extents = Vector2( 408, 10 )

[sub_resource type="RectangleShape2D" id=6]

custom_solver_bias = 0.0
extents = Vector2( 105.5, 10.25 )

[sub_resource type="RectangleShape2D" id=7]

custom_solver_bias = 0.0
extents = Vector2( 534, 119 )

[node name="truck" type="Node2D" index="0"]

script = SubResource( 1 )
_sections_unfolded = [ "Transform", "main" ]
main/fade_time = 0.3
main/camera_zoom = 0.7

[node name="sprite" type="Sprite" parent="." index="0"]

light_mask = 0
position = Vector2( 17, 2 )
scale = Vector2( 2, 2 )
z_index = 100
texture = ExtResource( 2 )
_sections_unfolded = [ "Material", "Transform", "Visibility", "Z Index" ]

[node name="back" type="Sprite" parent="sprite" index="0"]

light_mask = 2048
position = Vector2( -13, -34.5 )
z_index = -200
texture = ExtResource( 3 )
_sections_unfolded = [ "Material", "Visibility", "Z Index" ]

[node name="decal_polygon" type="Polygon2D" parent="sprite" index="1"]

light_mask = 32
material = SubResource( 2 )
z_index = -199
polygon = PoolVector2Array( -285, -96.5, -284.5, 27.5, 256.5, 27.5, 255.5, -95.5 )
uv = PoolVector2Array(  )
splits = PoolIntArray(  )
color = Color( 1, 1, 1, 1 )
vertex_colors = PoolColorArray(  )
offset = Vector2( 0, 0 )
antialiased = false
texture = null
texture_offset = Vector2( 0, 0 )
texture_scale = Vector2( 1, 1 )
texture_rotation_degrees = 0.0
invert_enable = false
invert_border = 100.0
_sections_unfolded = [ "Material", "Visibility", "Z Index" ]

[node name="front" type="Sprite" parent="sprite" index="2"]

visible = false
light_mask = 0
position = Vector2( -13.75, -29.75 )
texture = ExtResource( 4 )
_sections_unfolded = [ "Visibility", "Z Index" ]

[node name="dark_light" type="Light2D" parent="sprite" index="3"]

light_mask = 2048
position = Vector2( -13.5, -31.5 )
enabled = true
editor_only = false
texture = ExtResource( 5 )
offset = Vector2( 0, 0 )
texture_scale = 1.0
color = Color( 0, 0, 0, 0.823216 )
energy = 1.0
mode = 2
range_height = 0.0
range_z_min = -1024
range_z_max = 1024
range_layer_min = 0
range_layer_max = 0
range_item_cull_mask = 2048
shadow_enabled = false
shadow_color = Color( 0, 0, 0, 0 )
shadow_buffer_size = 2048
shadow_gradient_length = 0.0
shadow_filter = 0
shadow_filter_smooth = 0.0
shadow_item_cull_mask = 2048
_sections_unfolded = [ "Material", "Range", "Shadow", "Visibility", "Z Index" ]

[node name="light_occluder_2d" type="LightOccluder2D" parent="sprite" index="4"]

light_mask = 1024
occluder = SubResource( 3 )
light_mask = 1024

[node name="ladder" type="Sprite" parent="sprite" index="5"]

show_behind_parent = true
position = Vector2( 221, -32.5 )
z_index = 100
z_as_relative = false
texture = ExtResource( 6 )
_sections_unfolded = [ "Visibility", "Z Index" ]

[node name="area_2d" type="Area2D" parent="sprite/ladder" index="0" groups=[
"ladder",
]]

position = Vector2( -5.75, -67 )
scale = Vector2( 0.5, 0.5 )
input_pickable = true
gravity_vec = Vector2( 0, 1 )
gravity = 98.0
linear_damp = 0.1
angular_damp = 1.0
audio_bus_override = false
audio_bus_name = "Master"

[node name="collision_shape_2d" type="CollisionShape2D" parent="sprite/ladder/area_2d" index="0"]

position = Vector2( 6, 132 )
shape = SubResource( 4 )

[node name="static_truck" type="StaticBody2D" parent="." index="1"]

input_pickable = false
collision_layer = 1
collision_mask = 1
constant_linear_velocity = Vector2( 0, 0 )
constant_angular_velocity = 0.0
friction = 1.0
bounce = 0.0
_sections_unfolded = [ "Collision", "Transform", "Z Index" ]

[node name="collision" type="CollisionPolygon2D" parent="static_truck" index="0"]

position = Vector2( 10, 0 )
build_mode = 0
polygon = PoolVector2Array( -787, 216, -562, 57.5, -403, 57.5, 458, 58, 460, -193, 529.5, -193, 534, -96, 602, -100, 716, -96, 738, -74, 749, -65, 768, -6.5, 776, 92.5, 777, 153.5, 653.5, 216.5 )

[node name="collision_top" type="CollisionShape2D" parent="static_truck" index="1"]

position = Vector2( -150.5, -182.75 )
shape = SubResource( 5 )

[node name="collision2" type="CollisionShape2D" parent="static_truck" index="2"]

position = Vector2( 363.25, -182.5 )
shape = SubResource( 6 )
one_way_collision = true
_sections_unfolded = [ "Material", "Transform", "Visibility", "Z Index" ]

[node name="inner_area" type="Area2D" parent="." index="2" groups=[
"camera_zoom",
]]

input_pickable = true
gravity_vec = Vector2( 0, 1 )
gravity = 98.0
linear_damp = 0.1
angular_damp = 1.0
audio_bus_override = true
audio_bus_name = "in_truck"
_sections_unfolded = [ "Audio Bus", "Collision", "Material", "Pause", "Transform", "Visibility", "Z Index" ]
__meta__ = {
"_edit_group_": true,
"_edit_lock_": true
}

[node name="collision" type="CollisionShape2D" parent="inner_area" index="0"]

position = Vector2( -25, -65 )
shape = SubResource( 7 )
__meta__ = {
"_edit_lock_": true
}


