[gd_scene load_steps=4 format=2]

[ext_resource path="res://gdnlib/enemy.gdnlib" type="GDNativeLibrary" id=1]

[sub_resource type="NativeScript" id=1]

resource_name = "EnemyChangeDirection"
class_name = "EnemyChangeDirection"
library = ExtResource( 1 )

[sub_resource type="RectangleShape2D" id=2]

custom_solver_bias = 0.0
extents = Vector2( 10, 32 )

[node name="change_direction" type="Area2D" index="0"]

input_pickable = true
gravity_vec = Vector2( 0, 1 )
gravity = 98.0
linear_damp = 0.1
angular_damp = 1.0
audio_bus_override = false
audio_bus_name = "Master"
script = SubResource( 1 )
_sections_unfolded = [ "main" ]
main/timeout = 10.0
main/direction = -1

[node name="collision" type="CollisionShape2D" parent="." index="0"]

shape = SubResource( 2 )


